%YAML 1.1
%TAG !u! tag:unity3d.com,2011:
--- !u!74 &7400000
AnimationClip:
  m_ObjectHideFlags: 0
  m_CorrespondingSourceObject: {fileID: 0}
  m_PrefabInstance: {fileID: 0}
  m_PrefabAsset: {fileID: 0}
  m_Name: Bella_Walk
  serializedVersion: 6
  m_Legacy: 0
  m_Compressed: 0
  m_UseHighQualityCurve: 1
  m_RotationCurves: []
  m_CompressedRotationCurves: []
  m_EulerCurves: []
  m_PositionCurves: []
  m_ScaleCurves:
  - curve:
      serializedVersion: 2
      m_Curve:
      - serializedVersion: 3
        time: 0
        value: {x: -0.35, y: 0.35, z: 1}
        inSlope: {x: 0, y: 0, z: 0}
        outSlope: {x: 0, y: 0, z: 0}
        tangentMode: 0
        weightedMode: 0
        inWeight: {x: 0.33333334, y: 0.33333334, z: 0.33333334}
        outWeight: {x: 0.33333334, y: 0.33333334, z: 0.33333334}
      m_PreInfinity: 2
      m_PostInfinity: 2
      m_RotationOrder: 4
    path: 
  m_FloatCurves: []
  m_PPtrCurves:
  - curve:
    - time: 0
      value: {fileID: 21300000, guid: b7fac9f651b8f44299e9db713d99483d, type: 3}
    - time: 0.125
      value: {fileID: 21300000, guid: 5ac98b7e065f34757b6cc1234a8cfbce, type: 3}
    - time: 0.20833333
      value: {fileID: 21300000, guid: 70c901391ef3b4210a42ff9c33bd83d4, type: 3}
    - time: 0.29166666
      value: {fileID: 21300000, guid: 642d7cb3948ca4434afa0923fdaaa80a, type: 3}
    - time: 0.375
      value: {fileID: 21300000, guid: f47d095c794d847568b67ffc318e14b7, type: 3}
    - time: 0.45833334
      value: {fileID: 21300000, guid: 840a577435e9e4a55b1639e4411ddef0, type: 3}
    - time: 0.5416667
      value: {fileID: 21300000, guid: 6de9fbc1733ec4ed3b18b0f17b5b606a, type: 3}
    - time: 0.625
      value: {fileID: 21300000, guid: 68bba0148acb146a7a3f047b8526fb00, type: 3}
    - time: 0.7083333
      value: {fileID: 21300000, guid: d1f14ca59db59467cb5f42566f6aee0b, type: 3}
    - time: 0.7916667
      value: {fileID: 21300000, guid: 10a194c46e6a74d71a8c699b8b5386ab, type: 3}
    - time: 0.875
      value: {fileID: 21300000, guid: c3b785f23314043708dbc4fa77c25c3f, type: 3}
    - time: 0.9583333
      value: {fileID: 21300000, guid: 9aa067bc52cdd4118972a3cd64335ed2, type: 3}
    - time: 1.0416666
      value: {fileID: 21300000, guid: 8fcc62f4072c5409db112f4470bf00e7, type: 3}
    attribute: m_Sprite
    path: 
    classID: 212
    script: {fileID: 0}
  m_SampleRate: 24
  m_WrapMode: 0
  m_Bounds:
    m_Center: {x: 0, y: 0, z: 0}
    m_Extent: {x: 0, y: 0, z: 0}
  m_ClipBindingConstant:
    genericBindings:
    - serializedVersion: 2
      path: 0
      attribute: 0
      script: {fileID: 0}
      typeID: 212
      customType: 23
      isPPtrCurve: 1
    - serializedVersion: 2
      path: 0
      attribute: 3
      script: {fileID: 0}
      typeID: 4
      customType: 0
      isPPtrCurve: 0
    pptrCurveMapping:
    - {fileID: 21300000, guid: b7fac9f651b8f44299e9db713d99483d, type: 3}
    - {fileID: 21300000, guid: 5ac98b7e065f34757b6cc1234a8cfbce, type: 3}
    - {fileID: 21300000, guid: 70c901391ef3b4210a42ff9c33bd83d4, type: 3}
    - {fileID: 21300000, guid: 642d7cb3948ca4434afa0923fdaaa80a, type: 3}
    - {fileID: 21300000, guid: f47d095c794d847568b67ffc318e14b7, type: 3}
    - {fileID: 21300000, guid: 840a577435e9e4a55b1639e4411ddef0, type: 3}
    - {fileID: 21300000, guid: 6de9fbc1733ec4ed3b18b0f17b5b606a, type: 3}
    - {fileID: 21300000, guid: 68bba0148acb146a7a3f047b8526fb00, type: 3}
    - {fileID: 21300000, guid: d1f14ca59db59467cb5f42566f6aee0b, type: 3}
    - {fileID: 21300000, guid: 10a194c46e6a74d71a8c699b8b5386ab, type: 3}
    - {fileID: 21300000, guid: c3b785f23314043708dbc4fa77c25c3f, type: 3}
    - {fileID: 21300000, guid: 9aa067bc52cdd4118972a3cd64335ed2, type: 3}
    - {fileID: 21300000, guid: 8fcc62f4072c5409db112f4470bf00e7, type: 3}
  m_AnimationClipSettings:
    serializedVersion: 2
    m_AdditiveReferencePoseClip: {fileID: 0}
    m_AdditiveReferencePoseTime: 0
    m_StartTime: 0
    m_StopTime: 1.0833333
    m_OrientationOffsetY: 0
    m_Level: 0
    m_CycleOffset: 0
    m_HasAdditiveReferencePose: 0
    m_LoopTime: 1
    m_LoopBlend: 0
    m_LoopBlendOrientation: 0
    m_LoopBlendPositionY: 0
    m_LoopBlendPositionXZ: 0
    m_KeepOriginalOrientation: 0
    m_KeepOriginalPositionY: 1
    m_KeepOriginalPositionXZ: 0
    m_HeightFromFeet: 0
    m_Mirror: 0
  m_EditorCurves:
  - curve:
      serializedVersion: 2
      m_Curve:
      - serializedVersion: 3
        time: 0
        value: -0.35
        inSlope: 0
        outSlope: 0
        tangentMode: 136
        weightedMode: 0
        inWeight: 0.33333334
        outWeight: 0.33333334
      m_PreInfinity: 2
      m_PostInfinity: 2
      m_RotationOrder: 4
    attribute: m_LocalScale.x
    path: 
    classID: 4
    script: {fileID: 0}
  - curve:
      serializedVersion: 2
      m_Curve:
      - serializedVersion: 3
        time: 0
        value: 0.35
        inSlope: 0
        outSlope: 0
        tangentMode: 136
        weightedMode: 0
        inWeight: 0.33333334
        outWeight: 0.33333334
      m_PreInfinity: 2
      m_PostInfinity: 2
      m_RotationOrder: 4
    attribute: m_LocalScale.y
    path: 
    classID: 4
    script: {fileID: 0}
  - curve:
      serializedVersion: 2
      m_Curve:
      - serializedVersion: 3
        time: 0
        value: 1
        inSlope: 0
        outSlope: 0
        tangentMode: 136
        weightedMode: 0
        inWeight: 0.33333334
        outWeight: 0.33333334
      m_PreInfinity: 2
      m_PostInfinity: 2
      m_RotationOrder: 4
    attribute: m_LocalScale.z
    path: 
    classID: 4
    script: {fileID: 0}
  m_EulerEditorCurves: []
  m_HasGenericRootTransform: 0
  m_HasMotionFloatCurves: 0
  m_Events: []
